                              ----...        
  --- -                              ~~--.   
  ---   __..              ---      X      )  
    .-~~      Plenty      -- -       )   (   
   (            of        - --    .-'     )  
    `.         Room       ----   (       (   
      )               `-. -- -    )  /\   `. 
   .-'     - ---     o   ~-.___.-'   ~~     )
           -- --                        _.-' 
                               ....---~~     
